{"dashboard":
  {
    "id": null,
    "__inputs": [
      {
        "name": "DS_INFLUX",
        "label": "influx",
        "description": "",
        "type": "datasource",
        "pluginId": "influxdb",
        "pluginName": "InfluxDB"
      }
    ],
    "__requires": [
      {
        "type": "grafana",
        "id": "grafana",
        "name": "Grafana",
        "version": "5.0.0-pre1"
      },
      {
        "type": "panel",
        "id": "graph",
        "name": "Graph",
        "version": ""
      },
      {
        "type": "datasource",
        "id": "influxdb",
        "name": "InfluxDB",
        "version": "1.0.0"
      }
    ],
    "annotations": {
      "list": [
        {
          "builtIn": 1,
          "datasource": "-- Grafana --",
          "enable": true,
          "hide": true,
          "iconColor": "rgba(0, 211, 255, 1)",
          "name": "Annotations & Alerts",
          "type": "dashboard"
        }
      ]
    },
    "editable": true,
    "gnetId": null,
    "graphTooltip": 0,
    "id": null,
    "iteration": 1516011423374,
    "links": [],
    "panels": [
      {
        "aliasColors": {},
        "bars": false,
        "dashLength": 10,
        "dashes": false,
        "datasource": "influx",
        "fill": 1,
        "gridPos": {
          "h": 7,
          "w": 12,
          "x": 0,
          "y": 0
        },
        "id": 1,
        "interval": "",
        "legend": {
          "alignAsTable": true,
          "avg": true,
          "current": true,
          "max": true,
          "min": true,
          "rightSide": false,
          "show": true,
          "total": true,
          "values": true
        },
        "lines": true,
        "linewidth": 1,
        "links": [],
        "nullPointMode": "connected",
        "percentage": false,
        "pointradius": 5,
        "points": false,
        "renderer": "flot",
        "seriesOverrides": [],
        "spaceLength": 10,
        "stack": false,
        "steppedLine": false,
        "targets": [
          {
            "alias": "Memory {host: $tag_machine, container: $tag_container_name}",
            "dsType": "influxdb",
            "groupBy": [
              {
                "params": [
                  "$__interval"
                ],
                "type": "time"
              },
              {
                "params": [
                  "machine"
                ],
                "type": "tag"
              },
              {
                "params": [
                  "container_name"
                ],
                "type": "tag"
              }
            ],
            "measurement": "memory_usage",
            "orderByTime": "ASC",
            "policy": "default",
            "query": "SELECT \"value\" FROM \"memory_usage\" WHERE \"container_name\" =~ /^$container$/ AND \"machine\" =~ /^$host$/ AND $timeFilter",
            "rawQuery": false,
            "refId": "A",
            "resultFormat": "time_series",
            "select": [
              [
                {
                  "params": [
                    "value"
                  ],
                  "type": "field"
                },
                {
                  "params": [],
                  "type": "mean"
                }
              ]
            ],
            "tags": [
              {
                "key": "container_name",
                "operator": "=~",
                "value": "/^$container$*/"
              },
              {
                "condition": "AND",
                "key": "machine",
                "operator": "=~",
                "value": "/^$host$/"
              }
            ]
          }
        ],
        "thresholds": [],
        "timeFrom": null,
        "timeShift": null,
        "title": "Memory",
        "tooltip": {
          "shared": true,
          "sort": 0,
          "value_type": "individual"
        },
        "type": "graph",
        "xaxis": {
          "buckets": null,
          "mode": "time",
          "name": null,
          "show": true,
          "values": []
        },
        "yaxes": [
          {
            "format": "decbytes",
            "label": null,
            "logBase": 1,
            "max": null,
            "min": null,
            "show": true
          },
          {
            "format": "short",
            "label": null,
            "logBase": 1,
            "max": null,
            "min": null,
            "show": true
          }
        ]
      },
      {
        "aliasColors": {},
        "bars": false,
        "dashLength": 10,
        "dashes": false,
        "datasource": "influx",
        "fill": 1,
        "gridPos": {
          "h": 7,
          "w": 12,
          "x": 12,
          "y": 0
        },
        "id": 2,
        "legend": {
          "alignAsTable": true,
          "avg": true,
          "current": true,
          "max": true,
          "min": true,
          "show": true,
          "total": true,
          "values": true
        },
        "lines": true,
        "linewidth": 1,
        "links": [],
        "nullPointMode": "connected",
        "percentage": false,
        "pointradius": 5,
        "points": false,
        "renderer": "flot",
        "seriesOverrides": [],
        "spaceLength": 10,
        "stack": false,
        "steppedLine": false,
        "targets": [
          {
            "alias": "CPU {host: $tag_machine, container: $tag_container_name}",
            "dsType": "influxdb",
            "groupBy": [
              {
                "params": [
                  "$interval"
                ],
                "type": "time"
              },
              {
                "params": [
                  "machine"
                ],
                "type": "tag"
              },
              {
                "params": [
                  "container_name"
                ],
                "type": "tag"
              }
            ],
            "measurement": "cpu_usage_total",
            "orderByTime": "ASC",
            "policy": "default",
            "refId": "A",
            "resultFormat": "time_series",
            "select": [
              [
                {
                  "params": [
                    "value"
                  ],
                  "type": "field"
                },
                {
                  "params": [],
                  "type": "mean"
                },
                {
                  "params": [
                    "10s"
                  ],
                  "type": "derivative"
                }
              ]
            ],
            "tags": [
              {
                "key": "container_name",
                "operator": "=~",
                "value": "/^$container$*/"
              },
              {
                "condition": "AND",
                "key": "machine",
                "operator": "=~",
                "value": "/^$host$/"
              }
            ]
          }
        ],
        "thresholds": [],
        "timeFrom": null,
        "timeShift": null,
        "title": "CPU",
        "tooltip": {
          "shared": true,
          "sort": 0,
          "value_type": "individual"
        },
        "type": "graph",
        "xaxis": {
          "buckets": null,
          "mode": "time",
          "name": null,
          "show": true,
          "values": []
        },
        "yaxes": [
          {
            "format": "hertz",
            "label": null,
            "logBase": 1,
            "max": null,
            "min": null,
            "show": true
          },
          {
            "format": "short",
            "label": null,
            "logBase": 1,
            "max": null,
            "min": null,
            "show": true
          }
        ]
      },
      {
        "aliasColors": {},
        "bars": false,
        "dashLength": 10,
        "dashes": false,
        "datasource": "influx",
        "fill": 1,
        "gridPos": {
          "h": 7,
          "w": 12,
          "x": 0,
          "y": 7
        },
        "id": 3,
        "legend": {
          "alignAsTable": true,
          "avg": true,
          "current": true,
          "max": true,
          "min": true,
          "show": true,
          "total": true,
          "values": true
        },
        "lines": true,
        "linewidth": 1,
        "links": [],
        "nullPointMode": "connected",
        "percentage": false,
        "pointradius": 5,
        "points": false,
        "renderer": "flot",
        "seriesOverrides": [],
        "spaceLength": 10,
        "stack": false,
        "steppedLine": false,
        "targets": [
          {
            "alias": "Usage {host: $tag_machine, container: $tag_container_name}",
            "dsType": "influxdb",
            "groupBy": [
              {
                "params": [
                  "$interval"
                ],
                "type": "time"
              },
              {
                "params": [
                  "container_name"
                ],
                "type": "tag"
              },
              {
                "params": [
                  "machine"
                ],
                "type": "tag"
              }
            ],
            "measurement": "fs_usage",
            "orderByTime": "ASC",
            "policy": "default",
            "refId": "A",
            "resultFormat": "time_series",
            "select": [
              [
                {
                  "params": [
                    "value"
                  ],
                  "type": "field"
                },
                {
                  "params": [],
                  "type": "mean"
                }
              ]
            ],
            "tags": [
              {
                "key": "machine",
                "operator": "=~",
                "value": "/^$host$/"
              },
              {
                "condition": "AND",
                "key": "container_name",
                "operator": "=~",
                "value": "/^$container$*/"
              }
            ]
          },
          {
            "alias": "Limit {host: $tag_machine, container: $tag_container_name}",
            "dsType": "influxdb",
            "groupBy": [
              {
                "params": [
                  "$interval"
                ],
                "type": "time"
              },
              {
                "params": [
                  "container_name"
                ],
                "type": "tag"
              },
              {
                "params": [
                  "machine"
                ],
                "type": "tag"
              }
            ],
            "measurement": "fs_limit",
            "orderByTime": "ASC",
            "policy": "default",
            "refId": "B",
            "resultFormat": "time_series",
            "select": [
              [
                {
                  "params": [
                    "value"
                  ],
                  "type": "field"
                },
                {
                  "params": [],
                  "type": "mean"
                }
              ]
            ],
            "tags": [
              {
                "key": "machine",
                "operator": "=~",
                "value": "/^$host$/"
              },
              {
                "condition": "AND",
                "key": "container_name",
                "operator": "=~",
                "value": "/^$container$*/"
              }
            ]
          }
        ],
        "thresholds": [],
        "timeFrom": null,
        "timeShift": null,
        "title": "File System",
        "tooltip": {
          "shared": true,
          "sort": 0,
          "value_type": "individual"
        },
        "type": "graph",
        "xaxis": {
          "buckets": null,
          "mode": "time",
          "name": null,
          "show": true,
          "values": []
        },
        "yaxes": [
          {
            "format": "decbytes",
            "label": null,
            "logBase": 1,
            "max": null,
            "min": null,
            "show": true
          },
          {
            "format": "short",
            "label": null,
            "logBase": 1,
            "max": null,
            "min": null,
            "show": true
          }
        ]
      },
      {
        "aliasColors": {},
        "bars": false,
        "dashLength": 10,
        "dashes": false,
        "datasource": "influx",
        "fill": 1,
        "gridPos": {
          "h": 7,
          "w": 12,
          "x": 12,
          "y": 7
        },
        "id": 4,
        "legend": {
          "alignAsTable": true,
          "avg": true,
          "current": true,
          "max": true,
          "min": true,
          "show": true,
          "total": true,
          "values": true
        },
        "lines": true,
        "linewidth": 1,
        "links": [],
        "nullPointMode": "connected",
        "percentage": false,
        "pointradius": 5,
        "points": false,
        "renderer": "flot",
        "seriesOverrides": [],
        "spaceLength": 10,
        "stack": false,
        "steppedLine": false,
        "targets": [
          {
            "alias": "RX {host: $tag_machine, container: $tag_container_name}",
            "dsType": "influxdb",
            "groupBy": [
              {
                "params": [
                  "$interval"
                ],
                "type": "time"
              },
              {
                "params": [
                  "container_name"
                ],
                "type": "tag"
              },
              {
                "params": [
                  "machine"
                ],
                "type": "tag"
              }
            ],
            "measurement": "rx_bytes",
            "orderByTime": "ASC",
            "policy": "default",
            "refId": "A",
            "resultFormat": "time_series",
            "select": [
              [
                {
                  "params": [
                    "value"
                  ],
                  "type": "field"
                },
                {
                  "params": [],
                  "type": "mean"
                },
                {
                  "params": [
                    "10s"
                  ],
                  "type": "derivative"
                }
              ]
            ],
            "tags": [
              {
                "key": "machine",
                "operator": "=~",
                "value": "/^$host$/"
              },
              {
                "condition": "AND",
                "key": "container_name",
                "operator": "=~",
                "value": "/^$container$*/"
              }
            ]
          },
          {
            "alias": "TX {host: $tag_machine, container: $tag_container_name}",
            "dsType": "influxdb",
            "groupBy": [
              {
                "params": [
                  "$interval"
                ],
                "type": "time"
              },
              {
                "params": [
                  "container_name"
                ],
                "type": "tag"
              },
              {
                "params": [
                  "machine"
                ],
                "type": "tag"
              }
            ],
            "measurement": "tx_bytes",
            "orderByTime": "ASC",
            "policy": "default",
            "refId": "B",
            "resultFormat": "time_series",
            "select": [
              [
                {
                  "params": [
                    "value"
                  ],
                  "type": "field"
                },
                {
                  "params": [],
                  "type": "mean"
                },
                {
                  "params": [
                    "10s"
                  ],
                  "type": "derivative"
                }
              ]
            ],
            "tags": [
              {
                "key": "machine",
                "operator": "=~",
                "value": "/^$host$/"
              },
              {
                "condition": "AND",
                "key": "container_name",
                "operator": "=~",
                "value": "/^$container$*/"
              }
            ]
          }
        ],
        "thresholds": [],
        "timeFrom": null,
        "timeShift": null,
        "title": "Network",
        "tooltip": {
          "shared": true,
          "sort": 0,
          "value_type": "individual"
        },
        "type": "graph",
        "xaxis": {
          "buckets": null,
          "mode": "time",
          "name": null,
          "show": true,
          "values": []
        },
        "yaxes": [
          {
            "format": "Bps",
            "label": null,
            "logBase": 1,
            "max": null,
            "min": null,
            "show": true
          },
          {
            "format": "short",
            "label": null,
            "logBase": 1,
            "max": null,
            "min": null,
            "show": true
          }
        ]
      }
    ],
    "refresh": "5s",
    "schemaVersion": 16,
    "style": "dark",
    "tags": [],
    "templating": {
      "list": [
        {
          "allValue": "",
          "current": {},
          "datasource": "influx",
          "hide": 0,
          "includeAll": true,
          "label": "Host",
          "multi": false,
          "name": "host",
          "options": [],
          "query": "show tag values with key = \"machine\"",
          "refresh": 1,
          "regex": "",
          "sort": 0,
          "tagValuesQuery": "",
          "tags": [],
          "tagsQuery": "",
          "type": "query",
          "useTags": false
        },
        {
          "allValue": null,
          "current": {},
          "datasource": "influx",
          "hide": 0,
          "includeAll": false,
          "label": "Container",
          "multi": false,
          "name": "container",
          "options": [],
          "query": "show tag values with key = \"container_name\" WHERE machine =~ /^$host$/",
          "refresh": 1,
          "regex": "/([^.]+)/",
          "sort": 0,
          "tagValuesQuery": "",
          "tags": [],
          "tagsQuery": "",
          "type": "query",
          "useTags": false
        }
      ]
    },
    "time": {
      "from": "now-6h",
      "to": "now"
    },
    "timepicker": {
      "refresh_intervals": [
        "5s",
        "10s",
        "30s",
        "1m",
        "5m",
        "15m",
        "30m",
        "1h",
        "2h",
        "1d"
      ],
      "time_options": [
        "5m",
        "15m",
        "1h",
        "6h",
        "12h",
        "24h",
        "2d",
        "7d",
        "30d"
      ]
    },
    "timezone": "browser",
    "title": "ownr-platform",
    "version": 1
  }
}